<?xml version="1.0" encoding="utf-8"?>
<!-- Generator: Adobe Illustrator 21.0.2, SVG Export Plug-In . SVG Version: 6.00 Build 0)  -->
<svg version="1.1" id="Layer_1" xmlns="http://www.w3.org/2000/svg" xmlns:xlink="http://www.w3.org/1999/xlink" x="0px" y="0px"
	 viewBox="0 0 38 30.1" style="enable-background:new 0 0 38 30.1;" xml:space="preserve">
<style type="text/css">
	.st0{fill:none;stroke:#4fceab;stroke-width:1.25;stroke-linecap:round;stroke-linejoin:round;}
</style>
<title>Asistencia</title>
<desc>Created with Sketch.</desc>
<g id="solicitar-asistencia" transform="translate(13.000000, 310.000000)">
	<g id="Asistencia" transform="translate(21.000000, 0.000000)">
		<g id="Page-1" transform="translate(10.000000, 13.000000)">
			<path id="Stroke-1" class="st0" d="M-24.4-303.6l-7-13.5c-0.6-0.9-1.6-1.5-2.7-1.5h-3l5.1,15"/>
			<path id="Stroke-3" class="st0" d="M-18-304.9h1.3"/>
			<path id="Stroke-5" class="st0" d="M-16.8-296.1h-16.5"/>
			<polyline id="Stroke-7" class="st0" points="-18,-314.9 -18,-307.4 -11.7,-307.4 			"/>
			<path id="Stroke-9" class="st0" d="M-40.2-296.1h-3.2l2.5-7.4h16.5v-18.8h9.7c0.5,0,2.1,0.4,2.4,0.8l3.3,3.2
				c0.8,0,1.7,0.3,2.3,0.9v2.6l-1.3,0.6v6.2l1.3,0.8v7.9c0,1.8-1.4,3.2-3.2,3.2"/>
			<path id="Stroke-11" class="st0" d="M-38.3-304.8h2.5"/>
			<path id="Stroke-13" class="st0" d="M-13-317.4h-7.6"/>
			<path id="Stroke-15" class="st0" d="M-10.4-296.7c0,1.7-1.4,3.2-3.2,3.2s-3.2-1.4-3.2-3.2s1.4-3.2,3.2-3.2
				S-10.4-298.5-10.4-296.7L-10.4-296.7z"/>
			<path id="Stroke-17" class="st0" d="M-33.3-296.7c0,1.7-1.4,3.1-3.2,3.1c-1.7,0-3.2-1.4-3.2-3.1s1.4-3.1,3.2-3.1
				C-34.7-299.8-33.3-298.4-33.3-296.7L-33.3-296.7z"/>
			<path id="Stroke-19" class="st0" d="M-37-318.6v8.4v0.3c0,0.7-0.8,1.2-1.9,1.2c-1.1,0-1.9-0.6-1.9-1.2"/>
		</g>
	</g>
</g>
</svg>
